[
  {
    "name": "Manhattan",
    "category": "Classic",
    "recipe": [
      {
        "name": "whisky",
        "units": "oz",
        "part": 2
      },
      {
        "name": "sweet vermouth",
        "units": "oz",
        "part": 1
      },
      {
        "name": "bitters",
        "units": "dash",
        "part": 2,
        "rounded": true
      },
      {
        "name": "cherry",
        "units": "",
        "part": 2,
        "rounded": true
      }
    ],
    "shot": [
      {
        "name": "whisky",
        "units": "oz",
        "part": 1.5
      },
      {
        "name": "sweet vermouth",
        "units": "oz",
        "part": 0.5
      },
      {
        "name": "bitters",
        "units": "dash",
        "part": 1,
        "rounded": true
      },
      {
        "name": "cherry",
        "units": "",
        "part": 1,
        "rounded": true
      }
    ]
  },
  {
    "name": "Daiquiri",
    "category": "Sour",
    "recipe": [
      {
        "name": "rum",
        "units": "oz",
        "part": 2
      },
      {
        "name": "lime juice",
        "units": "oz",
        "part": 1
      },
      {
        "name": "simple syrup",
        "units": "oz",
        "part": 0.75
      }
    ],
    "shot": [
      {
        "name": "rum",
        "units": "oz",
        "part": 1.5
      },
      {
        "name": "lime juice",
        "units": "oz",
        "part": 0.75
      },
      {
        "name": "simple syrup",
        "units": "oz",
        "part": 0.25
      }
    ]
  },
  {
    "name": "New York Sour",
    "category": "Sour",
    "recipe": [
      {
        "name": "whisky",
        "units": "oz",
        "part": 2
      },
      {
        "name": "lemon juice",
        "units": "oz",
        "part": 1
      },
      {
        "name": "simple syrup",
        "units": "oz",
        "part": 0.75
      },
      {
        "name": "red wine",
        "units": "float",
        "part": 0,
        "static": true
      }
    ],
    "shot": [
      {
        "name": "whisky",
        "units": "oz",
        "part": 1.25
      },
      {
        "name": "lemon juice",
        "units": "oz",
        "part": 0.75
      },
      {
        "name": "simple syrup",
        "units": "oz",
        "part": 0.5
      },
      {
        "name": "red wine",
        "units": "float",
        "part": 0,
        "static": true
      }
    ]
  },
  {
    "name": "Blue Hawaii",
    "recipe": [
      {
        "name": "rum",
        "units": "oz",
        "part": 1
      },
      {
        "name": "vodka",
        "units": "oz",
        "part": 1
      },
      {
        "name": "blue curaçao",
        "units": "oz",
        "part": 0.5
      },
      {
        "name": "lemon juice",
        "units": "oz",
        "part": 0.75
      },
      {
        "name": "simple syrup",
        "units": "oz",
        "part": 0.25
      },
      {
        "name": "pineapple juice",
        "units": "oz",
        "part": 3
      }
    ],
    "shot": []
  },
  {
    "name": "Wild Eyed Rose",
    "recipe": [
      {
        "name": "whisky",
        "units": "oz",
        "part": 2
      },
      {
        "name": "lime juice",
        "units": "oz",
        "part": 0.75
      },
      {
        "name": "grenadine",
        "units": "oz",
        "part": 0.75
      }
    ],
    "shot": [
      {
        "name": "whisky",
        "units": "oz",
        "part": 1.5
      },
      {
        "name": "lime juice",
        "units": "oz",
        "part": 0.5
      },
      {
        "name": "grenadine",
        "units": "oz",
        "part": 0.5
      }
    ]
  },
  {
    "name": "Mai Tai",
    "category": "Classic",
    "recipe": [
      {
        "name": "Jamaican rum",
        "units": "oz",
        "part": 1
      },
      {
        "name": "Martinique rum (rhum)",
        "units": "oz",
        "part": 1
      },
      {
        "name": "lime juice",
        "units": "oz",
        "part": 1
      },
      {
        "name": "orange curaçao",
        "units": "oz",
        "part": 0.5
      },
      {
        "name": "orgeat",
        "units": "oz",
        "part": 0.5
      },
      {
        "name": "simple syrup",
        "units": "oz",
        "part": 0.25
      }
    ],
    "shot": []
  },
  {
    "name": "Bee's Knees",
    "category": "Sour",
    "recipe": [
      {
        "name": "gin",
        "units": "oz",
        "part": 2
      },
      {
        "name": "lemon juice",
        "units": "oz",
        "part": 0.75
      },
      {
        "name": "honey syrup",
        "units": "oz",
        "part": 0.75
      }
    ],
    "shot": [
    {
        "name": "gin",
        "units": "oz",
        "part": 1.5
      },
      {
        "name": "lemon juice",
        "units": "oz",
        "part": 0.5
      },
      {
        "name": "honey syrup",
        "units": "oz",
        "part": 0.5
      }
    ]
  },
  {
    "name": "Brown Derby",
    "recipe": [
      {
        "name": "whisky",
        "units": "oz",
        "part": 2
      },
      {
        "name": "grapefruit juice",
        "units": "oz",
        "part": 1
      },
      {
        "name": "honey syrup",
        "units": "oz",
        "part": 0.5
      }
    ],
    "shot": [
      {
        "name": "whisky",
        "units": "oz",
        "part": 1.5
      },
      {
        "name": "grapefruit juice",
        "units": "oz",
        "part": 0.75
      },
      {
        "name": "honey syrup",
        "units": "oz",
        "part": 0.25
      }
    ]
  },
  {
    "name": "Bronx",
    "category": "Classic",
    "recipe": [
      {
        "name": "gin",
        "units": "oz",
        "part": 2
      },
      {
        "name": "sweet vermouth",
        "units": "oz",
        "part": 1
      },
      {
        "name": "dry vermouth",
        "units": "oz",
        "part": 0.5
      },
      {
        "name": "orange juice",
        "units": "oz",
        "part": 1
      }
    ],
    "shot": []
  },
  {
    "name": "Gin & Lemon Fizz",
    "category": "Original",
    "recipe": [
      {
        "name": "gin",
        "units": "oz",
        "part": 2
      },
      {
        "name": "lemon juice",
        "units": "oz",
        "part": 0.5
      },
      {
        "name": "oleo saccharum",
        "units": "oz",
        "part": 0.5
      },
      {
        "name": "seltzer",
        "units": "top with",
        "part": 1.0,
        "static": true
      }
    ],
    "shot": []
  },
  {
    "name": "Pink Lady",
    "recipe": [
      {
        "name": "gin",
        "units": "oz",
        "part": 2
      },
      {
        "name": "lemon juice",
        "units": "oz",
        "part": 1
      },
      {
        "name": "grenadine",
        "units": "oz",
        "part": 0.75
      },
      {
        "name": "egg white",
        "units": "",
        "part": 1,
        "rounded": true
      }
    ],
    "shot": []
  },
  {
    "name": "Piña Colada",
    "category": "Classic",
    "recipe": [
      {
        "name": "rum",
        "units": "oz",
        "part": 2
      },
      {
        "name": "pineapple juice",
        "units": "oz",
        "part": 2
      },
      {
        "name": "lime juice",
        "units": "oz",
        "part": 0.25
      },
      {
        "name": "cream of coconut",
        "units": "oz",
        "part": 0.75
      }
    ],
    "shot": []
  },
  {
    "name": "Long Island Iced Tea",
    "category": "Classic",
    "recipe": [
      {
        "name": "rum",
        "units": "oz",
        "part": 0.5
      },
      {
        "name": "vodka",
        "units": "oz",
        "part": 0.5
      },
      {
        "name": "gin",
        "units": "oz",
        "part": 0.5
      },
      {
        "name": "tequila",
        "units": "oz",
        "part": 0.5
      },
      {
        "name": "triple sec",
        "units": "oz",
        "part": 0.5
      },
      {
        "name": "lemon juice",
        "units": "oz",
        "part": 0.75
      },
      {
        "name": "simple syrup",
        "units": "oz",
        "part": 0.75
      },
      {
        "name": "cola",
        "units": "splash",
        "part": 1,
        "static": true
      }
    ],
    "shot": []
  },
  {
    "name": "Tiger's Blood",
    "category": "Original",
    "recipe": [
      {
        "name": "rum",
        "units": "oz",
        "part": 2
      },
      {
        "name": "watermelon",
        "units": "large serving spoon",
        "part": 1.5
      },
      {
        "name": "coconut cream",
        "units": "oz",
        "part": 0.75
      },
      {
        "name": "lemon juice",
        "units": "oz",
        "part": 0.5
      },
      {
        "name": "pineapple juice (optional)",
        "units": "oz",
        "part": 0.5
      }
    ]
  },
  {
    "name": "Gin Driver",
    "category": "Original",
    "recipe": [
      {
        "name": "gin",
        "units": "oz",
        "part": 2
      },
      {
        "name": "orange juice",
        "units": "oz",
        "part": 3
      },
      {
        "name": "Peychaud's bitters",
        "units": "dash",
        "part": 3
      },
      {
        "name": "grenadine",
        "units": "drizzle",
        "part": 1,
        "static": true
      }
    ],
    "shot": []
  },
  {
    "name": "Whisky Sour",
    "category": "Sour",
    "recipe": [
      {
        "name": "whisky",
        "units": "oz",
        "part": 2
      },
      {
        "name": "lemon juice",
        "units": "oz",
        "part": 1
      },
      {
        "name": "simple syrup",
        "units": "oz",
        "part": 0.75
      },
      {
        "name": "egg white",
        "units": "dry shake",
        "part": 1,
        "static": true
      }
    ],
    "shot": [
      {
        "name": "whisky",
        "units": "oz",
        "part": 1.5
      },
      {
        "name": "lemon juice",
        "units": "oz",
        "part": 0.5
      },
      {
        "name": "simple syrup",
        "units": "oz",
        "part": 0.5
      }
    ]
  },
  {
    "name": "Tan-gin-erine",
    "category": "Original",
    "recipe": [
      {
        "name": "gin",
        "units": "oz",
        "part": 2
      },
      {
        "name": "tangerine juice",
        "units": "oz",
        "part": 2
      },
      {
        "name": "pineapple juice",
        "units": "oz",
        "part": 1
      },
      {
        "name": "lime juice",
        "units": "oz",
        "part": 0.25
      },
      {
        "name": "simple syrup",
        "units": "oz",
        "part": 0.25
      },
      {
        "name": "tangerine peel",
        "units": "twist",
        "part": 1,
        "static": true
      },
      {
        "name": "peychaud's bitters",
        "units": "decoration",
        "part": 1,
        "static": true
      }
    ],
    "shot": []
  },
  {
    "name": "Lemon Drop",
    "category": "Sour",
    "recipe": [
      {
        "name": "vodka",
        "units": "oz",
        "part": 2
      },
      {
        "name": "curacao / triple sec",
        "units": "oz",
        "part": 0.5
      },
      {
        "name": "simple syrup",
        "units": "oz",
        "part": 1
      },
      {
        "name": "lemon juice",
        "units": "oz",
        "part": 1
      }
    ],
    "shot": [
      {
        "name": "vodka",
        "units": "oz",
        "part": 1.5
      },
      {
        "name": "simple syrup",
        "units": "oz",
        "part": 0.5
      },
      {
        "name": "lemon juice",
        "units": "oz",
        "part": 0.5
      }
    ]
  },
  {
    "name": "Negroni",
    "category": "Classic",
    "recipe": [
      {
        "name": "gin",
        "units": "oz",
        "part": 1
      },
      {
        "name": "sweet vermouth",
        "units": "oz",
        "part": 1
      },
      {
        "name": "campari",
        "units": "oz",
        "part": 1
      }
    ],
    "shot": [
      {
        "name": "gin",
        "units": "oz",
        "part": 1
      },
      {
        "name": "sweet vermouth",
        "units": "oz",
        "part": 0.75
      },
      {
        "name": "campari",
        "units": "oz",
        "part": 0.75
      }
    ]
  },
  {
    "name": "Rock and Stormy",
    "category": "Original",
    "recipe": [
      {
        "name": "whisky",
        "units": "oz",
        "part": 3
      },
      {
        "name": "honey syrup",
        "units": "oz",
        "part": 0.25
      },
      {
        "name": "orange bitters",
        "units": "dashes",
        "part": 4
      },
      {
        "name": "ginger beer",
        "units": "oz",
        "part": 7
      }
    ],
    "shot": [
      {
        "name": "whisky",
        "units": "oz",
        "part": 1.25
      },
      {
        "name": "honey syrup",
        "units": "oz",
        "part": 0.25
      },
      {
        "name": "orange bitters",
        "units": "dashes",
        "part": 1
      },
      {
        "name": "ginger beer",
        "units": "oz",
        "part": 1
      }
    ]
  },
  {
    "name": "Margarita",
    "category": "Sour",
    "recipe": [
      {
        "name": "tequila",
        "units": "oz",
        "part": 2
      },
      {
        "name": "lime juice",
        "units": "oz",
        "part": 1
      },
      {
        "name": "simple syrup",
        "units": "oz",
        "part": 1
      },
      {
        "name": "orange curaçao",
        "units": "oz",
        "part": 0.5
      },
      {
        "name": "saline solution",
        "units": "oz",
        "part": 0.15
      }
    ],
    "shot": []
  },
  {
    "name": "Chili Mango Mezcal Margarita",
    "category": "Original",
    "recipe": [
      {
        "name": "mezcal",
        "units": "oz",
        "part": 2
      },
      {
        "name": "mango nectar",
        "units": "oz",
        "part": 2
      },
      {
        "name": "lime juice",
        "units": "oz",
        "part": 0.25
      },
      {
        "name": "chili powder",
        "units": "dash",
        "part": 1,
        "static": true
      },
      {
        "name": "tajin seasoning",
        "units": "rimmed with",
        "part": 1,
        "static": true
      }
    ],
    "shot": []
  },
  {
    "name": "Mary Pickford",
    "category": "Sour",
    "recipe": [
      {
        "name": "white rum",
        "units": "oz",
        "part": 2.0
      },
      {
        "name": "grenadine",
        "units": "oz",
        "part": 0.25
      },
      {
        "name": "pineapple juice",
        "units": "oz",
        "part": 1.5
      },
      {
        "name": "maraschino",
        "units": "bar spoon",
        "part": 1.0,
        "rounded": true
      }
    ],
    "shot": []
  },
  {
    "name": "Scofflaw",
    "category": "Sour",
    "recipe": [
      {
        "name": "rye",
        "units": "oz",
        "part": 2.0
      },
      {
        "name": "grenadine",
        "units": "oz",
        "part": 0.5
      },
      {
        "name": "dry vermouth",
        "units": "oz",
        "part": 1.0
      },
      {
        "name": "lemon juice",
        "units": "oz",
        "part": 0.25
      }
    ],
    "shot": []
  },
  {
    "name": "Twelve Mile Limit",
    "category": "Sour",
    "recipe": [
      {
        "name": "rye",
        "units": "oz",
        "part": 1.0
      },
      {
        "name": "cognac",
        "units": "oz",
        "part": 1.0
      },
      {
        "name": "grenadine",
        "units": "oz",
        "part": 1.0
      },
      {
        "name": "lemon juice",
        "units": "oz",
        "part": 1.0
      }
    ],
    "shot": []
  },
  {
    "name": "Hairy Navel",
    "category": "Other",
    "recipe": [
      {
        "name": "vodka",
        "units": "oz",
        "part": 2.0
      },
      {
        "name": "orange juice",
        "units": "oz",
        "part": 4.0
      },
      {
        "name": "peach schnapps",
        "units": "oz",
        "part": 0.25
      }
    ],
    "shot": []
  }
]